module bitbucket.org/fasales/colly-fasthttp-v2

go 1.12

require (
	bitbucket.org/fasales/fasthttp-modified v1.0.0
	github.com/PuerkitoBio/goquery v1.5.0
	github.com/antchfx/htmlquery v1.0.0
	github.com/antchfx/xmlquery v1.0.0
	github.com/antchfx/xpath v1.0.0 // indirect
	github.com/dsnet/compress v0.0.1
	github.com/gobwas/glob v0.2.3
	github.com/jawher/mow.cli v1.1.0
	github.com/kennygrant/sanitize v1.2.4
	github.com/saintfish/chardet v0.0.0-20120816061221-3af4cd4741ca
	github.com/temoto/robotstxt v1.1.1
	github.com/valyala/fasthttp v1.6.0 // indirect
	golang.org/x/net v0.0.0-20190827160401-ba9fcec4b297
	google.golang.org/appengine v1.6.1
)
